<?xml version="1.0" encoding="UTF-8" standalone="no"?>
<!-- Created with Inkscape (http://www.inkscape.org/) -->

<svg
   width="210mm"
   height="297mm"
   viewBox="0 0 210 297"
   version="1.1"
   id="svg850"
   inkscape:version="1.1.2 (0a00cf5339, 2022-02-04)"
   sodipodi:docname="tips_new.svg"
   xmlns:inkscape="http://www.inkscape.org/namespaces/inkscape"
   xmlns:sodipodi="http://sodipodi.sourceforge.net/DTD/sodipodi-0.dtd"
   xmlns:xlink="http://www.w3.org/1999/xlink"
   xmlns="http://www.w3.org/2000/svg"
   xmlns:svg="http://www.w3.org/2000/svg">
  <sodipodi:namedview
     id="namedview852"
     pagecolor="#ffffff"
     bordercolor="#666666"
     borderopacity="1.0"
     inkscape:pageshadow="2"
     inkscape:pageopacity="0.0"
     inkscape:pagecheckerboard="0"
     inkscape:document-units="mm"
     showgrid="false"
     inkscape:snap-nodes="false"
     inkscape:snap-global="false"
     showguides="true"
     inkscape:guide-bbox="true"
     inkscape:zoom="0.20535659"
     inkscape:cx="1774.9613"
     inkscape:cy="435.82727"
     inkscape:window-width="1600"
     inkscape:window-height="827"
     inkscape:window-x="0"
     inkscape:window-y="40"
     inkscape:window-maximized="1"
     inkscape:current-layer="layer1"
     inkscape:snap-bbox="true"
     inkscape:bbox-paths="true" />
  <defs
     id="defs847">
    <inkscape:path-effect
       effect="fillet_chamfer"
       id="path-effect17234"
       is_visible="true"
       lpeversion="1"
       satellites_param="F,0,0,1,0,84.466115,0,1 @ F,0,0,1,0,0,0,1 @ F,0,0,1,0,0,0,1 @ F,0,0,1,0,0,0,1 @ F,0,0,1,0,0,0,1"
       unit="px"
       method="auto"
       mode="F"
       radius="0"
       chamfer_steps="1"
       flexible="false"
       use_knot_distance="true"
       apply_no_radius="true"
       apply_with_radius="true"
       only_selected="false"
       hide_knots="false" />
    <inkscape:path-effect
       effect="fillet_chamfer"
       id="path-effect7123"
       is_visible="true"
       lpeversion="1"
       satellites_param="F,0,0,1,0,27.607417,0,1 @ F,0,0,1,0,0,0,1 @ F,0,0,1,0,0,0,1 @ F,0,0,1,0,0,0,1 @ F,0,0,1,0,0,0,1"
       unit="px"
       method="auto"
       mode="F"
       radius="0"
       chamfer_steps="1"
       flexible="false"
       use_knot_distance="true"
       apply_no_radius="true"
       apply_with_radius="true"
       only_selected="false"
       hide_knots="false" />
    <clipPath
       clipPathUnits="userSpaceOnUse"
       id="clipPath3044">
      <use
         x="0"
         y="0"
         xlink:href="#g3040"
         id="use3046" />
    </clipPath>
    <inkscape:path-effect
       effect="fillet_chamfer"
       id="path-effect7123-1"
       is_visible="true"
       lpeversion="1"
       satellites_param="F,0,0,1,0,27.607417,0,1 @ F,0,0,1,0,0,0,1 @ F,0,0,1,0,0,0,1 @ F,0,0,1,0,0,0,1 @ F,0,0,1,0,0,0,1"
       unit="px"
       method="auto"
       mode="F"
       radius="0"
       chamfer_steps="1"
       flexible="false"
       use_knot_distance="true"
       apply_no_radius="true"
       apply_with_radius="true"
       only_selected="false"
       hide_knots="false" />
  </defs>
  <g
     inkscape:label="Layer 1"
     inkscape:groupmode="layer"
     id="layer1">
    <circle
       style="fill:#d5ffd5;stroke:#00d400;stroke-width:6.3407;stroke-miterlimit:4;stroke-dasharray:none;stroke-opacity:1"
       id="path3740"
       cx="12.026248"
       cy="-17.623688"
       r="85.511818"
       inkscape:export-filename="/home/mayank/code/mj/ebooks/python/lep/Section 1 - Core Python/Chapter A. Appendix/images/tips-new.png"
       inkscape:export-xdpi="36.66"
       inkscape:export-ydpi="36.66" />
    <circle
       style="fill:#ffeeaa;stroke:#d4aa00;stroke-width:6.3407;stroke-miterlimit:4;stroke-dasharray:none;stroke-opacity:1"
       id="path3740-9"
       cx="222.96529"
       cy="-5.3203101"
       r="85.511818"
       inkscape:export-filename="/home/mayank/code/mj/ebooks/python/lep/Section 1 - Core Python/Chapter A. Appendix/images/notes-new.png"
       inkscape:export-xdpi="36.66"
       inkscape:export-ydpi="36.66" />
    <g
       id="g3042"
       clip-path="url(#clipPath3044)"
       transform="matrix(1.0030598,0,0,0.99557491,-53.157121,-79.148241)"
       style="fill:#00ff00"
       inkscape:export-filename="/home/mayank/code/mj/ebooks/python/lep/Section 1 - Core Python/Chapter A. Appendix/images/tips-new.png"
       inkscape:export-xdpi="36.66"
       inkscape:export-ydpi="36.66">
      <g
         inkscape:label="Clip"
         id="g3040"
         style="fill:#00ff00">
        <g
           id="g2853"
           transform="translate(17.125251,-10.911039)"
           style="fill:#00ff00">
          <rect
             style="fill:#00ff00;stroke:#000000;stroke-width:0;stroke-miterlimit:4;stroke-dasharray:none"
             id="rect1233"
             width="33.289909"
             height="11.810836"
             x="31.456158"
             y="124.66372"
             ry="3.0754263" />
          <rect
             style="fill:#00ff00;stroke:#000000;stroke-width:0;stroke-miterlimit:4;stroke-dasharray:none"
             id="rect1259"
             width="15.241643"
             height="6.7382112"
             x="40.480289"
             y="140.02335"
             ry="1.7695054" />
          <g
             id="g2506"
             transform="translate(0,0.04532876)"
             style="fill:#00ff00">
            <rect
               style="fill:#00ff00;stroke:#000000;stroke-width:0;stroke-miterlimit:4;stroke-dasharray:none"
               id="rect1233-3"
               width="49.577072"
               height="31.531511"
               x="23.312576"
               y="89.485123"
               ry="8.2104969" />
            <ellipse
               style="fill:#00ff00;stroke:none;stroke-width:63.4084"
               id="path2312"
               cx="48.101112"
               cy="-69.244331"
               rx="45.039143"
               ry="41.552589"
               transform="scale(1,-1)" />
          </g>
          <rect
             style="fill:#00ff00;stroke:none;stroke-width:0;stroke-miterlimit:4;stroke-dasharray:none"
             id="rect2530"
             width="7.8164077"
             height="24.957327"
             x="-77.836411"
             y="-27.391628"
             ry="3.9082038"
             inkscape:transform-center-x="62.772243"
             inkscape:transform-center-y="0.020744747"
             transform="rotate(-90)" />
          <rect
             style="fill:#00ff00;stroke:none;stroke-width:0;stroke-miterlimit:4;stroke-dasharray:none"
             id="rect2823"
             width="7.8164077"
             height="24.957327"
             x="-44.005051"
             y="3.1501753"
             ry="3.9082038"
             inkscape:transform-center-x="54.37273"
             inkscape:transform-center-y="-31.368155"
             transform="rotate(-60)" />
          <rect
             style="fill:#00ff00;stroke:none;stroke-width:0;stroke-miterlimit:4;stroke-dasharray:none"
             id="rect2825"
             width="7.8164077"
             height="24.957327"
             x="0.56466967"
             y="12.684472"
             ry="3.9082038"
             inkscape:transform-center-x="31.404088"
             inkscape:transform-center-y="-54.351984"
             transform="rotate(-30)" />
          <rect
             style="fill:#00ff00;stroke:none;stroke-width:0;stroke-miterlimit:4;stroke-dasharray:none"
             id="rect2827"
             width="7.8164077"
             height="24.957327"
             x="43.930328"
             y="-1.3434445"
             ry="3.9082038"
             inkscape:transform-center-x="0.020745642"
             inkscape:transform-center-y="-62.772243" />
          <rect
             style="fill:#00ff00;stroke:none;stroke-width:0;stroke-miterlimit:4;stroke-dasharray:none"
             id="rect2829"
             width="7.8164077"
             height="24.957327"
             x="74.47213"
             y="-35.174805"
             ry="3.9082038"
             inkscape:transform-center-x="-31.368153"
             inkscape:transform-center-y="-54.37273"
             transform="rotate(30)" />
          <rect
             style="fill:#00ff00;stroke:none;stroke-width:0;stroke-miterlimit:4;stroke-dasharray:none"
             id="rect2831"
             width="7.8164077"
             height="24.957327"
             x="84.006424"
             y="-79.744522"
             ry="3.9082038"
             inkscape:transform-center-x="-54.351979"
             inkscape:transform-center-y="-31.40409"
             transform="rotate(60)" />
          <rect
             style="fill:#00ff00;stroke:none;stroke-width:0;stroke-miterlimit:4;stroke-dasharray:none"
             id="rect2833"
             width="7.8164077"
             height="24.957327"
             x="69.978508"
             y="-123.11018"
             ry="3.9082038"
             inkscape:transform-center-x="-62.772243"
             inkscape:transform-center-y="-0.02074987"
             transform="rotate(90)" />
          <rect
             style="fill:#00ff00;stroke:none;stroke-width:0;stroke-miterlimit:4;stroke-dasharray:none"
             id="rect2835"
             width="7.8164077"
             height="24.957327"
             x="36.147148"
             y="-153.65199"
             ry="3.9082038"
             inkscape:transform-center-x="-54.372736"
             inkscape:transform-center-y="31.368155"
             transform="rotate(120)" />
          <rect
             style="fill:#00ff00;stroke:none;stroke-width:0;stroke-miterlimit:4;stroke-dasharray:none"
             id="rect2837"
             width="7.8164077"
             height="24.957327"
             x="-91.864334"
             y="-70.757294"
             ry="3.9082038"
             inkscape:transform-center-x="54.351987"
             inkscape:transform-center-y="31.404096"
             transform="rotate(-120)" />
        </g>
      </g>
    </g>
    <g
       id="g15349"
       transform="matrix(1.2646216,0,0,1.0835416,327.15268,-236.60013)"
       inkscape:export-filename="/home/mayank/code/mj/ebooks/python/lep/Section 1 - Core Python/Chapter A. Appendix/images/notes-new.png"
       inkscape:export-xdpi="36.66"
       inkscape:export-ydpi="36.66">
      <path
         id="rect4042"
         style="fill:#ffb380;stroke:none;stroke-width:23.466;stroke-miterlimit:4;stroke-dasharray:none;stroke-opacity:1"
         d="m 864.88477,328.7207 c -11.95291,0 -21.57618,11.4026 -21.57618,25.56446 v 351.06836 c 0,14.16185 9.62327,25.56445 21.57618,25.56445 h 229.80863 c 10.2219,-10.40493 33.4101,-34.09153 88.0781,-90.10352 V 354.28516 c 0,-14.16186 -9.6234,-25.56446 -21.5762,-25.56446 z"
         transform="scale(0.26458333)" />
      <path
         id="path7103"
         style="fill:#aa0000;stroke:none;stroke-width:30.2362;stroke-miterlimit:4;stroke-dasharray:none;stroke-opacity:1"
         d="m 1094.8184,667.23242 v 63.30664 h 0.4082 c 6.671,-6.8776 26.1805,-26.94866 87.5351,-89.92187 V 639.625 h -60.3359 a 27.607417,27.607417 135 0 0 -27.6074,27.60742 z"
         transform="scale(0.26458333)"
         inkscape:path-effect="#path-effect7123"
         inkscape:original-d="m 1094.8184,639.625 v 90.91406 h 0.4082 c 6.671,-6.8776 26.1805,-26.94866 87.5351,-89.92187 V 639.625 Z" />
      <ellipse
         style="fill:#ffffff;stroke:none;stroke-width:10.7385;stroke-miterlimit:4;stroke-dasharray:none;stroke-opacity:1"
         id="path7616"
         cx="244.6302"
         cy="105.19372"
         rx="13.07832"
         ry="13.173903" />
      <ellipse
         style="fill:#ffffff;stroke:none;stroke-width:10.7385;stroke-miterlimit:4;stroke-dasharray:none;stroke-opacity:1"
         id="circle14603"
         cx="244.6302"
         cy="105.19372"
         rx="13.07832"
         ry="13.173903" />
      <ellipse
         style="fill:#ffffff;stroke:none;stroke-width:10.7385;stroke-miterlimit:4;stroke-dasharray:none;stroke-opacity:1"
         id="circle14603-5"
         cx="286.10233"
         cy="104.41379"
         rx="13.07832"
         ry="13.173903" />
      <ellipse
         style="fill:#ff2a2a;stroke:none;stroke-width:3.49391;stroke-miterlimit:4;stroke-dasharray:none;stroke-opacity:1"
         id="circle14603-6"
         cx="247.30478"
         cy="109.50625"
         rx="4.2552171"
         ry="4.2863159" />
      <ellipse
         style="fill:#ff2a2a;stroke:none;stroke-width:3.49391;stroke-miterlimit:4;stroke-dasharray:none;stroke-opacity:1"
         id="circle14603-6-2"
         cx="291.0907"
         cy="109.57545"
         rx="4.2552171"
         ry="4.2863159" />
      <path
         sodipodi:type="spiral"
         style="fill:none;fill-rule:evenodd;stroke:#ffffff;stroke-width:18.6304;stroke-linecap:round"
         id="path14725"
         sodipodi:cx="915.76141"
         sodipodi:cy="587.83386"
         sodipodi:expansion="1"
         sodipodi:revolution="0.24317904"
         sodipodi:radius="171.76447"
         sodipodi:argument="-1.4854084"
         sodipodi:t0="0"
         d="m 915.76141,587.83386 c 4.72555,-55.20749 71.78978,-66.79156 113.28749,-47.10108 24.8283,11.7809 44.3198,30.88502 58.3217,54.40411"
         transform="matrix(0.32686582,0,0,-0.36181276,-60.518902,346.68326)" />
    </g>
    <g
       id="g15349-2"
       transform="matrix(1.2646216,0,0,1.0835416,161.39865,-278.44002)"
       inkscape:export-filename="/home/mayank/code/mj/ebooks/python/lep/Section 1 - Core Python/Chapter A. Appendix/images/notes-new.png"
       inkscape:export-xdpi="36.66"
       inkscape:export-ydpi="36.66">
      <path
         id="rect4042-7"
         style="fill:#ffb380;stroke:none;stroke-width:23.466;stroke-miterlimit:4;stroke-dasharray:none;stroke-opacity:1"
         d="m 864.88477,328.7207 c -11.95291,0 -21.57618,11.4026 -21.57618,25.56446 v 351.06836 c 0,14.16185 9.62327,25.56445 21.57618,25.56445 h 229.80863 c 10.2219,-10.40493 33.4101,-34.09153 88.0781,-90.10352 V 354.28516 c 0,-14.16186 -9.6234,-25.56446 -21.5762,-25.56446 z"
         transform="scale(0.26458333)" />
      <path
         id="path7103-0"
         style="fill:#aa0000;stroke:none;stroke-width:30.2362;stroke-miterlimit:4;stroke-dasharray:none;stroke-opacity:1"
         d="m 1094.8184,667.23242 v 63.30664 h 0.4082 c 6.671,-6.8776 26.1805,-26.94866 87.5351,-89.92187 V 639.625 h -60.3359 a 27.607417,27.607417 135 0 0 -27.6074,27.60742 z"
         transform="scale(0.26458333)"
         inkscape:path-effect="#path-effect7123-1"
         inkscape:original-d="m 1094.8184,639.625 v 90.91406 h 0.4082 c 6.671,-6.8776 26.1805,-26.94866 87.5351,-89.92187 V 639.625 Z" />
      <ellipse
         style="fill:#ffffff;stroke:none;stroke-width:10.7385;stroke-miterlimit:4;stroke-dasharray:none;stroke-opacity:1"
         id="path7616-9"
         cx="244.6302"
         cy="105.19372"
         rx="13.07832"
         ry="13.173903" />
      <ellipse
         style="fill:#ffffff;stroke:none;stroke-width:10.7385;stroke-miterlimit:4;stroke-dasharray:none;stroke-opacity:1"
         id="circle14603-3"
         cx="244.6302"
         cy="105.19372"
         rx="13.07832"
         ry="13.173903" />
      <ellipse
         style="fill:#ffffff;stroke:none;stroke-width:10.7385;stroke-miterlimit:4;stroke-dasharray:none;stroke-opacity:1"
         id="circle14603-5-6"
         cx="286.10233"
         cy="104.41379"
         rx="13.07832"
         ry="13.173903" />
      <ellipse
         style="fill:#ff2a2a;stroke:none;stroke-width:3.49391;stroke-miterlimit:4;stroke-dasharray:none;stroke-opacity:1"
         id="circle14603-6-0"
         cx="247.30478"
         cy="109.50625"
         rx="4.2552171"
         ry="4.2863159" />
      <ellipse
         style="fill:#ff2a2a;stroke:none;stroke-width:3.49391;stroke-miterlimit:4;stroke-dasharray:none;stroke-opacity:1"
         id="circle14603-6-2-6"
         cx="291.0907"
         cy="109.57545"
         rx="4.2552171"
         ry="4.2863159" />
      <path
         sodipodi:type="spiral"
         style="fill:none;fill-rule:evenodd;stroke:#ffffff;stroke-width:18.6304;stroke-linecap:round"
         id="path14725-2"
         sodipodi:cx="915.76141"
         sodipodi:cy="587.83386"
         sodipodi:expansion="1"
         sodipodi:revolution="0.24317904"
         sodipodi:radius="171.76447"
         sodipodi:argument="-1.4854084"
         sodipodi:t0="0"
         transform="matrix(0.32686582,0,0,-0.36181276,-60.518902,346.68326)"
         d="m 915.76141,587.83386 c 4.72555,-55.20749 71.78978,-66.79156 113.28749,-47.10108 24.8283,11.7809 44.3198,30.88502 58.3217,54.40411" />
    </g>
    <path
       id="rect15690"
       style="fill:#fff6d5;fill-opacity:1;stroke:#ccff00;stroke-width:15.1181;stroke-linecap:round;stroke-miterlimit:4;stroke-dasharray:none;stroke-opacity:1"
       d="M 1347.873 30.347656 C 1331.1088 30.347656 1317.6133 43.843161 1317.6133 60.607422 L 1317.6133 726.89844 C 1317.6133 743.6627 1331.1088 757.16016 1347.873 757.16016 L 1894.8164 757.16016 L 2044.4258 593.91211 L 2044.4258 60.607422 C 2044.4258 43.843161 2030.9283 30.347656 2014.1641 30.347656 L 1347.873 30.347656 z "
       transform="scale(0.26458333)" />
    <path
       id="rect15912"
       style="fill:#668000;fill-opacity:1;stroke:#2b2200;stroke-width:16.2365;stroke-linecap:round;stroke-miterlimit:4;stroke-dasharray:none;stroke-opacity:1"
       d="m 1894.9531,677.5833 v 78.87178 h 0.5098 l 148.3574,-161.88281 v -1.45508 h -64.4011 a 84.466115,84.466115 135 0 0 -84.4661,84.46611 z"
       transform="scale(0.26458333)"
       inkscape:path-effect="#path-effect17234"
       inkscape:original-d="m 1894.9531,593.11719 v 163.33789 h 0.5098 l 148.3574,-161.88281 v -1.45508 z" />
  </g>
</svg>
